id;spend_time;state;title;description
1;2022-04-29T16:10:40;64828;Moroccan Future-proofed;Technician Gloves
2;2022-04-29T12:34:58;64501;Chair Supervisor;withdrawal
3;2022-04-30T07:19:40;56576;responsive Architect Stream;PNG Usability Quality
4;2022-04-30T02:42:51;5627;Lead Officer Fresh;Pa'anga
5;2022-04-30T02:36:22;46770;Bacon Health calculating;Reduced
6;2022-04-29T12:14:06;48628;interface;Fantastic Re-contextualized
7;2022-04-30T05:20:44;84490;Industrial architectures Plastic;real-time matrix Dynamic
8;2022-04-29T11:19:00;67640;Account;THX Rustic
9;2022-04-30T04:21:47;58270;Borders;Refined compressing
10;2022-04-30T07:55:10;55282;Infrastructure payment Vision-oriented;Colombian Bike
