{
  "applications": ["timelogerBackend"],
  "changelogDate": "20220430105129",
  "dto": "no",
  "embedded": false,
  "entityTableName": "daily_timelog",
  "fields": [
    {
      "fieldName": "id",
      "fieldType": "Long"
    },
    {
      "fieldName": "time",
      "fieldType": "Instant"
    },
    {
      "fieldName": "description",
      "fieldType": "String"
    },
    {
      "fieldName": "title",
      "fieldType": "String"
    }
  ],
  "fluentMethods": true,
  "jpaMetamodelFiltering": false,
  "name": "DailyTimelog",
  "pagination": "no",
  "readOnly": false,
  "relationships": [
    {
      "otherEntityName": "task",
      "otherEntityRelationshipName": "dailyTimelog",
      "relationshipName": "task",
      "relationshipType": "many-to-one"
    },
    {
      "otherEntityName": "user",
      "otherEntityRelationshipName": "timelogs",
      "ownerSide": true,
      "relationshipName": "users",
      "relationshipType": "many-to-many"
    }
  ],
  "service": "no"
}
